%!PS-Adobe-3.0 EPSF-3.0
%%Title: OSI-Modell.fig
%%Creator: fig2dev Version 3.2.7a
%%CreationDate: 2023-01-31 17:46:25
%%BoundingBox: 0 0 700 453
%%Magnification: 1.0000
%%EndComments
%%BeginProlog
/$F2psDict 200 dict def
$F2psDict begin
$F2psDict /mtrx matrix put
/col-1 {0 setgray} bind def
/col0 {0.000 0.000 0.000 srgb} bind def
/col7 {1.000 1.000 1.000 srgb} bind def
/col28 {1.000 0.630 0.630 srgb} bind def
/col32 {0.255 0.271 0.255 srgb} bind def
/col33 {0.753 0.753 0.753 srgb} bind def
/col34 {0.906 0.906 0.906 srgb} bind def
/col35 {0.443 0.459 0.443 srgb} bind def
/col36 {0.851 0.851 0.851 srgb} bind def
/col37 {0.337 0.620 0.690 srgb} bind def
/col38 {0.776 0.718 0.592 srgb} bind def
/col39 {0.937 0.973 1.000 srgb} bind def
/col40 {0.863 0.796 0.651 srgb} bind def
/col41 {0.251 0.251 0.251 srgb} bind def
/col42 {0.502 0.502 0.502 srgb} bind def
/col43 {0.878 0.878 0.878 srgb} bind def
/col44 {0.557 0.561 0.557 srgb} bind def
/col45 {0.780 0.765 0.780 srgb} bind def
/col46 {0.337 0.318 0.318 srgb} bind def
/col47 {0.667 0.667 0.667 srgb} bind def
/col48 {0.333 0.333 0.333 srgb} bind def
/col49 {0.557 0.557 0.557 srgb} bind def
/col50 {0.843 0.843 0.843 srgb} bind def
/col51 {0.522 0.502 0.490 srgb} bind def
/col52 {0.824 0.824 0.824 srgb} bind def
/col53 {0.227 0.227 0.227 srgb} bind def
/col54 {0.271 0.451 0.667 srgb} bind def
/col55 {0.682 0.682 0.682 srgb} bind def
/col56 {0.482 0.475 0.647 srgb} bind def
/col57 {0.267 0.267 0.267 srgb} bind def
/col58 {0.451 0.459 0.549 srgb} bind def
/col59 {0.969 0.969 0.969 srgb} bind def
/col60 {0.388 0.365 0.808 srgb} bind def
/col61 {0.745 0.745 0.745 srgb} bind def
/col62 {0.318 0.318 0.318 srgb} bind def
/col63 {0.906 0.890 0.906 srgb} bind def
/col64 {0.000 0.000 0.286 srgb} bind def
/col65 {0.475 0.475 0.475 srgb} bind def
/col66 {0.188 0.204 0.188 srgb} bind def
/col67 {0.255 0.255 0.255 srgb} bind def
/col68 {0.780 0.714 0.588 srgb} bind def
/col69 {0.322 0.365 0.420 srgb} bind def
/col70 {0.612 0.604 0.612 srgb} bind def
/col71 {0.710 0.714 0.776 srgb} bind def
/col72 {0.518 0.510 0.518 srgb} bind def
/col73 {0.776 0.765 0.776 srgb} bind def
/col74 {0.871 0.875 0.871 srgb} bind def
/col75 {0.259 0.271 0.259 srgb} bind def
/col76 {0.776 0.780 0.776 srgb} bind def
/col77 {0.525 0.510 0.525 srgb} bind def
/col78 {0.780 0.780 0.780 srgb} bind def
/col79 {0.459 0.459 0.459 srgb} bind def
/col80 {0.620 0.620 0.620 srgb} bind def
/col81 {0.843 0.827 0.843 srgb} bind def
/col82 {0.682 0.667 0.682 srgb} bind def
/col83 {0.188 0.188 0.188 srgb} bind def
/col84 {0.318 0.333 0.318 srgb} bind def
/col85 {0.969 0.953 0.969 srgb} bind def
/col86 {0.953 0.953 0.953 srgb} bind def
/col87 {0.525 0.525 0.525 srgb} bind def
/col88 {0.937 0.984 1.000 srgb} bind def
/col89 {0.400 0.400 0.400 srgb} bind def
/col90 {0.443 0.443 0.443 srgb} bind def
/col91 {0.761 0.761 0.761 srgb} bind def
/col92 {0.431 0.431 0.431 srgb} bind def
/col93 {0.200 0.200 0.200 srgb} bind def
/col94 {0.580 0.576 0.584 srgb} bind def
/col95 {0.455 0.439 0.459 srgb} bind def
/col96 {0.702 0.702 0.702 srgb} bind def
/col97 {0.765 0.765 0.765 srgb} bind def
/col98 {0.427 0.427 0.427 srgb} bind def
/col99 {0.271 0.271 0.271 srgb} bind def
/col100 {0.612 0.000 0.000 srgb} bind def
/col101 {0.549 0.549 0.549 srgb} bind def
/col102 {0.259 0.259 0.259 srgb} bind def
/col103 {0.549 0.549 0.549 srgb} bind def
/col104 {0.259 0.259 0.259 srgb} bind def
/col105 {0.549 0.549 0.549 srgb} bind def
/col106 {0.259 0.259 0.259 srgb} bind def
/col107 {0.549 0.549 0.549 srgb} bind def
/col108 {0.259 0.259 0.259 srgb} bind def
/col109 {0.549 0.549 0.549 srgb} bind def
/col110 {0.259 0.259 0.259 srgb} bind def
/col111 {0.549 0.549 0.549 srgb} bind def
/col112 {0.259 0.259 0.259 srgb} bind def
/col113 {0.800 0.800 0.800 srgb} bind def

end

/cp {closepath} bind def
/ef {eofill} bind def
/gr {grestore} bind def
/gs {gsave} bind def
/sa {save} bind def
/rs {restore} bind def
/l {lineto} bind def
/rl {rlineto} bind def
/m {moveto} bind def
/rm {rmoveto} bind def
/n {newpath} bind def
/s {stroke} bind def
/sh {show} bind def
/slc {setlinecap} bind def
/slj {setlinejoin} bind def
/slw {setlinewidth} bind def
/srgb {setrgbcolor} bind def
/rot {rotate} bind def
/sc {scale} bind def
/sd {setdash} bind def
/ff {findfont} bind def
/sf {setfont} bind def
/scf {scalefont} bind def
/sw {stringwidth} bind def
/tr {translate} bind def
/tnt {dup dup currentrgbcolor
  4 -2 roll dup 1 exch sub 3 -1 roll mul add
  4 -2 roll dup 1 exch sub 3 -1 roll mul add
  4 -2 roll dup 1 exch sub 3 -1 roll mul add srgb}
  bind def
/shd {dup dup currentrgbcolor 4 -2 roll mul 4 -2 roll mul
  4 -2 roll mul srgb} bind def
/reencdict 12 dict def /ReEncode { reencdict begin
/newcodesandnames exch def /newfontname exch def /basefontname exch def
/basefontdict basefontname findfont def /newfont basefontdict maxlength dict def
basefontdict { exch dup /FID ne { dup /Encoding eq
{ exch dup length array copy newfont 3 1 roll put }
{ exch newfont 3 1 roll put } ifelse } { pop pop } ifelse } forall
newfont /FontName newfontname put newcodesandnames aload pop
128 1 255 { newfont /Encoding get exch /.notdef put } for
newcodesandnames length 2 idiv { newfont /Encoding get 3 1 roll put } repeat
newfontname newfont definefont pop end } def
/isovec [
8#055 /minus 8#200 /grave 8#201 /acute 8#202 /circumflex 8#203 /tilde
8#204 /macron 8#205 /breve 8#206 /dotaccent 8#207 /dieresis
8#210 /ring 8#211 /cedilla 8#212 /hungarumlaut 8#213 /ogonek 8#214 /caron
8#220 /dotlessi 8#230 /oe 8#231 /OE
8#240 /space 8#241 /exclamdown 8#242 /cent 8#243 /sterling
8#244 /currency 8#245 /yen 8#246 /brokenbar 8#247 /section 8#250 /dieresis
8#251 /copyright 8#252 /ordfeminine 8#253 /guillemotleft 8#254 /logicalnot
8#255 /hyphen 8#256 /registered 8#257 /macron 8#260 /degree 8#261 /plusminus
8#262 /twosuperior 8#263 /threesuperior 8#264 /acute 8#265 /mu 8#266 /paragraph
8#267 /periodcentered 8#270 /cedilla 8#271 /onesuperior 8#272 /ordmasculine
8#273 /guillemotright 8#274 /onequarter 8#275 /onehalf
8#276 /threequarters 8#277 /questiondown 8#300 /Agrave 8#301 /Aacute
8#302 /Acircumflex 8#303 /Atilde 8#304 /Adieresis 8#305 /Aring
8#306 /AE 8#307 /Ccedilla 8#310 /Egrave 8#311 /Eacute
8#312 /Ecircumflex 8#313 /Edieresis 8#314 /Igrave 8#315 /Iacute
8#316 /Icircumflex 8#317 /Idieresis 8#320 /Eth 8#321 /Ntilde 8#322 /Ograve
8#323 /Oacute 8#324 /Ocircumflex 8#325 /Otilde 8#326 /Odieresis 8#327 /multiply
8#330 /Oslash 8#331 /Ugrave 8#332 /Uacute 8#333 /Ucircumflex
8#334 /Udieresis 8#335 /Yacute 8#336 /Thorn 8#337 /germandbls 8#340 /agrave
8#341 /aacute 8#342 /acircumflex 8#343 /atilde 8#344 /adieresis 8#345 /aring
8#346 /ae 8#347 /ccedilla 8#350 /egrave 8#351 /eacute
8#352 /ecircumflex 8#353 /edieresis 8#354 /igrave 8#355 /iacute
8#356 /icircumflex 8#357 /idieresis 8#360 /eth 8#361 /ntilde 8#362 /ograve
8#363 /oacute 8#364 /ocircumflex 8#365 /otilde 8#366 /odieresis 8#367 /divide
8#370 /oslash 8#371 /ugrave 8#372 /uacute 8#373 /ucircumflex
8#374 /udieresis 8#375 /yacute 8#376 /thorn 8#377 /ydieresis] def
/Helvetica-BoldOblique /Helvetica-BoldOblique-iso isovec ReEncode
/Helvetica /Helvetica-iso isovec ReEncode
/$F2psBegin {$F2psDict begin /$F2psEnteredState save def} def
/$F2psEnd {$F2psEnteredState restore end} def

/pageheader {
sa
n 0 453 m 0 0 l 700 0 l 700 453 l cp clip
-1.8 458.6 tr
1 -1 sc
$F2psBegin
10 setmiterlimit
0 slj 0 slc
 0.06299 0.06299 sc
} bind def
/pagefooter {
$F2psEnd
restore
} bind def
%%EndProlog
pageheader
%
% Fig objects follow
%
% 
% here starts figure with depth 50
% Polyline
0 slj
0 slc
7.500 slw
 [15 45] 45 sd
gs  clippath
9893 533 m 9907 533 l 9960 732 l 9900 792 l 9840 732 l cp
1298 713 m 1312 713 l 1365 912 l 1305 972 l 1245 912 l cp
eoclip
n 1305 720 m 1305 7155 l 9900 7155 l
 9900 540 l gs col0 s gr gr
 [] 0 sd
% arrowhead
n 1365 912 m 1305 732 l 1245 912 l 1305 972 l 1365 912 l 
 cp gs col7 1.00 shd ef gr  col0 s
% arrowhead
n 9960 732 m 9900 552 l 9840 732 l 9900 792 l 9960 732 l 
 cp gs col7 1.00 shd ef gr  col0 s
% here ends figure;
% 
% here starts figure with depth 4
% Polyline
0 slj
0 slc
165.000 slw
gs  clippath
10805 455 m 10976 455 l 11004 1094 l 10776 1094 l cp
9950 1751 m 9950 1580 l 10589 1551 l 10589 1779 l cp
eoclip
n 10035 1665 m 10890 1665 l
 10890 540 l gs col28 s gr gr
% arrowhead
45.000 slw
n 10589 1551 m 10132 1665 l 10589 1779 l 10589 1551 l  cp gs col28 1.00 shd ef gr  col28 s
% arrowhead
n 11004 1094 m 10890 637 l 10776 1094 l 11004 1094 l  cp gs col28 1.00 shd ef gr  col28 s
% Polyline
165.000 slw
gs  clippath
8006 4190 m 8005 4361 l 7365 4388 l 7366 4160 l cp
4458 4353 m 4459 4182 l 5099 4155 l 5098 4383 l cp
eoclip
n 4544 4268 m
 7920 4275 l gs col28 s gr gr
% arrowhead
45.000 slw
n 5099 4155 m 4641 4268 l 5098 4383 l 5099 4155 l  cp gs col28 1.00 shd ef gr  col28 s
% arrowhead
n 7365 4388 m 7823 4275 l 7366 4160 l 7365 4388 l  cp gs col28 1.00 shd ef gr  col28 s
% Polyline
165.000 slw
gs  clippath
8006 3335 m 8006 3506 l 7366 3534 l 7366 3306 l cp
4460 3506 m 4460 3335 l 5099 3306 l 5099 3534 l cp
eoclip
n 4545 3420 m
 7920 3420 l gs col28 s gr gr
% arrowhead
45.000 slw
n 5099 3306 m 4642 3420 l 5099 3534 l 5099 3306 l  cp gs col28 1.00 shd ef gr  col28 s
% arrowhead
n 7366 3534 m 7823 3420 l 7366 3306 l 7366 3534 l  cp gs col28 1.00 shd ef gr  col28 s
% Polyline
165.000 slw
gs  clippath
8006 1625 m 8006 1796 l 7366 1824 l 7366 1596 l cp
4460 1796 m 4460 1625 l 5099 1596 l 5099 1824 l cp
eoclip
n 4545 1710 m
 7920 1710 l gs col28 s gr gr
% arrowhead
45.000 slw
n 5099 1596 m 4642 1710 l 5099 1824 l 5099 1596 l  cp gs col28 1.00 shd ef gr  col28 s
% arrowhead
n 7366 1824 m 7823 1710 l 7366 1596 l 7366 1824 l  cp gs col28 1.00 shd ef gr  col28 s
% Polyline
165.000 slw
gs  clippath
1211 1625 m 1211 1796 l 571 1824 l 571 1596 l cp
185 545 m 356 545 l 384 1184 l 156 1184 l cp
eoclip
n 270 630 m 270 1710 l
 1125 1710 l gs col28 s gr gr
% arrowhead
45.000 slw
n 384 1184 m 270 727 l 156 1184 l 384 1184 l  cp gs col28 1.00 shd ef gr  col28 s
% arrowhead
n 571 1824 m 1028 1710 l 571 1596 l 571 1824 l  cp gs col28 1.00 shd ef gr  col28 s
% Polyline
165.000 slw
gs  clippath
8051 6710 m 8051 6881 l 7410 6909 l 7410 6681 l cp
4459 6881 m 4459 6710 l 5099 6681 l 5099 6909 l cp
eoclip
n 4544 6795 m
 7965 6795 l gs col0 s gr gr
% arrowhead
45.000 slw
n 5099 6681 m 4641 6795 l 5099 6909 l 5099 6681 l  cp gs 0.00 setgray ef gr  col0 s
% arrowhead
n 7410 6909 m 7868 6795 l 7410 6681 l 7410 6909 l  cp gs 0.00 setgray ef gr  col0 s
% Polyline
165.000 slw
gs  clippath
8006 2480 m 8006 2651 l 7366 2679 l 7366 2451 l cp
4459 2651 m 4459 2480 l 5098 2451 l 5098 2679 l cp
eoclip
n 4544 2565 m
 7920 2565 l gs col28 s gr gr
% arrowhead
45.000 slw
n 5098 2451 m 4641 2565 l 5098 2679 l 5098 2451 l  cp gs col28 1.00 shd ef gr  col28 s
% arrowhead
n 7366 2679 m 7823 2565 l 7366 2451 l 7366 2679 l  cp gs col28 1.00 shd ef gr  col28 s
% here ends figure;
% 
% here starts figure with depth 0
% Polyline
0 slj
0 slc
7.500 slw
n 7946 1267 m 10035 1267 l 10035 2116 l 7946 2116 l
 cp gs col0 s gr % Polyline
n 7946 2962 m 10035 2962 l 10035 3810 l 7946 3810 l
 cp gs col0 s gr % Polyline
n 7946 3810 m 10035 3810 l 10035 4657 l 7946 4657 l
 cp gs col0 s gr % Polyline
n 7946 4657 m 10035 4657 l 10035 5506 l 7946 5506 l
 cp gs col0 s gr % Polyline
n 7946 5506 m 10035 5506 l 10035 6352 l 7946 6352 l
 cp gs col0 s gr % Polyline
n 7946 6352 m 10035 6352 l 10035 7200 l 7946 7200 l
 cp gs col0 s gr % Polyline
n 7946 2116 m 10035 2116 l 10035 2962 l 7946 2962 l
 cp gs col0 s gr % Polyline
n 1115 1267 m 4544 1267 l 4544 2125 l 1115 2125 l
 cp gs col0 s gr % Polyline
n 1115 2982 m 4544 2982 l 4544 3839 l 1115 3839 l
 cp gs col0 s gr % Polyline
n 1115 3839 m 4544 3839 l 4544 4696 l 1115 4696 l
 cp gs col0 s gr % Polyline
n 1115 4696 m 4544 4696 l 4544 5554 l 1115 5554 l
 cp gs col0 s gr % Polyline
n 1115 5554 m 4544 5554 l 4544 6411 l 1115 6411 l
 cp gs col0 s gr % Polyline
n 1115 6411 m 4544 6411 l 4544 7268 l 1115 7268 l
 cp gs col0 s gr % Polyline
n 1115 2125 m 4544 2125 l 4544 2982 l 1115 2982 l
 cp gs col0 s gr /Helvetica-iso ff 381.00 scf sf
6245 4125 m
gs 1 -1 sc (Paketfilter) dup sw pop 2 div neg 0 rm  col0 sh gr
/Helvetica-iso ff 381.00 scf sf
6210 3240 m
gs 1 -1 sc (DNS) dup sw pop 2 div neg 0 rm  col0 sh gr
/Helvetica-iso ff 381.00 scf sf
6255 6615 m
gs 1 -1 sc (Kabel) dup sw pop 2 div neg 0 rm  col0 sh gr
/Helvetica-iso ff 381.00 scf sf
6165 2385 m
gs 1 -1 sc (Proxy) dup sw pop 2 div neg 0 rm  col0 sh gr
/Helvetica-iso ff 381.00 scf sf
8955 2700 m
gs 1 -1 sc (privoxy) dup sw pop 2 div neg 0 rm  col0 sh gr
/Helvetica-iso ff 381.00 scf sf
8955 1890 m
gs 1 -1 sc (no-script) dup sw pop 2 div neg 0 rm  col0 sh gr
/Helvetica-iso ff 381.00 scf sf
8955 3555 m
gs 1 -1 sc (/etc/hosts) dup sw pop 2 div neg 0 rm  col0 sh gr
/Helvetica-iso ff 381.00 scf sf
8955 4410 m
gs 1 -1 sc (iptables) dup sw pop 2 div neg 0 rm  col0 sh gr
/Helvetica-BoldOblique-iso ff 381.00 scf sf
10260 405 m
gs 1 -1 sc (Browser) dup sw pop 2 div neg 0 rm  col0 sh gr
/Helvetica-BoldOblique-iso ff 381.00 scf sf
2830 1839 m
gs 1 -1 sc (Application) dup sw pop 2 div neg 0 rm  col0 sh gr
/Helvetica-BoldOblique-iso ff 381.00 scf sf
2830 2696 m
gs 1 -1 sc (Presentation) dup sw pop 2 div neg 0 rm  col0 sh gr
/Helvetica-BoldOblique-iso ff 381.00 scf sf
2830 3553 m
gs 1 -1 sc (Session) dup sw pop 2 div neg 0 rm  col0 sh gr
/Helvetica-BoldOblique-iso ff 381.00 scf sf
2830 4411 m
gs 1 -1 sc (Transport) dup sw pop 2 div neg 0 rm  col0 sh gr
/Helvetica-BoldOblique-iso ff 381.00 scf sf
2830 5268 m
gs 1 -1 sc (Network) dup sw pop 2 div neg 0 rm  col0 sh gr
/Helvetica-BoldOblique-iso ff 381.00 scf sf
2830 6125 m
gs 1 -1 sc (Data Link) dup sw pop 2 div neg 0 rm  col0 sh gr
/Helvetica-BoldOblique-iso ff 381.00 scf sf
2830 6982 m
gs 1 -1 sc (physikal Layer) dup sw pop 2 div neg 0 rm  col0 sh gr
/Helvetica-BoldOblique-iso ff 381.00 scf sf
1350 585 m
gs 1 -1 sc (Internetseite) dup sw pop 2 div neg 0 rm  col0 sh gr
% here ends figure;
pagefooter
showpage
%%Trailer
%EOF
