%!PS-Adobe-3.0 EPSF-3.0
%%Title: proxy.fig
%%Creator: fig2dev Version 3.2.7a
%%CreationDate: 2023-01-30 16:46:53
%%BoundingBox: 0 0 702 386
%%Magnification: 1.0000
%%EndComments
%%BeginProlog
/$F2psDict 200 dict def
$F2psDict begin
$F2psDict /mtrx matrix put
/col-1 {0 setgray} bind def
/col0 {0.000 0.000 0.000 srgb} bind def
/col7 {1.000 1.000 1.000 srgb} bind def
/col28 {1.000 0.630 0.630 srgb} bind def

end

/cp {closepath} bind def
/ef {eofill} bind def
/gr {grestore} bind def
/gs {gsave} bind def
/sa {save} bind def
/rs {restore} bind def
/l {lineto} bind def
/rl {rlineto} bind def
/m {moveto} bind def
/rm {rmoveto} bind def
/n {newpath} bind def
/s {stroke} bind def
/sh {show} bind def
/slc {setlinecap} bind def
/slj {setlinejoin} bind def
/slw {setlinewidth} bind def
/srgb {setrgbcolor} bind def
/rot {rotate} bind def
/sc {scale} bind def
/sd {setdash} bind def
/ff {findfont} bind def
/sf {setfont} bind def
/scf {scalefont} bind def
/sw {stringwidth} bind def
/tr {translate} bind def
/tnt {dup dup currentrgbcolor
  4 -2 roll dup 1 exch sub 3 -1 roll mul add
  4 -2 roll dup 1 exch sub 3 -1 roll mul add
  4 -2 roll dup 1 exch sub 3 -1 roll mul add srgb}
  bind def
/shd {dup dup currentrgbcolor 4 -2 roll mul 4 -2 roll mul
  4 -2 roll mul srgb} bind def
/reencdict 12 dict def /ReEncode { reencdict begin
/newcodesandnames exch def /newfontname exch def /basefontname exch def
/basefontdict basefontname findfont def /newfont basefontdict maxlength dict def
basefontdict { exch dup /FID ne { dup /Encoding eq
{ exch dup length array copy newfont 3 1 roll put }
{ exch newfont 3 1 roll put } ifelse } { pop pop } ifelse } forall
newfont /FontName newfontname put newcodesandnames aload pop
128 1 255 { newfont /Encoding get exch /.notdef put } for
newcodesandnames length 2 idiv { newfont /Encoding get 3 1 roll put } repeat
newfontname newfont definefont pop end } def
/isovec [
8#055 /minus 8#200 /grave 8#201 /acute 8#202 /circumflex 8#203 /tilde
8#204 /macron 8#205 /breve 8#206 /dotaccent 8#207 /dieresis
8#210 /ring 8#211 /cedilla 8#212 /hungarumlaut 8#213 /ogonek 8#214 /caron
8#220 /dotlessi 8#230 /oe 8#231 /OE
8#240 /space 8#241 /exclamdown 8#242 /cent 8#243 /sterling
8#244 /currency 8#245 /yen 8#246 /brokenbar 8#247 /section 8#250 /dieresis
8#251 /copyright 8#252 /ordfeminine 8#253 /guillemotleft 8#254 /logicalnot
8#255 /hyphen 8#256 /registered 8#257 /macron 8#260 /degree 8#261 /plusminus
8#262 /twosuperior 8#263 /threesuperior 8#264 /acute 8#265 /mu 8#266 /paragraph
8#267 /periodcentered 8#270 /cedilla 8#271 /onesuperior 8#272 /ordmasculine
8#273 /guillemotright 8#274 /onequarter 8#275 /onehalf
8#276 /threequarters 8#277 /questiondown 8#300 /Agrave 8#301 /Aacute
8#302 /Acircumflex 8#303 /Atilde 8#304 /Adieresis 8#305 /Aring
8#306 /AE 8#307 /Ccedilla 8#310 /Egrave 8#311 /Eacute
8#312 /Ecircumflex 8#313 /Edieresis 8#314 /Igrave 8#315 /Iacute
8#316 /Icircumflex 8#317 /Idieresis 8#320 /Eth 8#321 /Ntilde 8#322 /Ograve
8#323 /Oacute 8#324 /Ocircumflex 8#325 /Otilde 8#326 /Odieresis 8#327 /multiply
8#330 /Oslash 8#331 /Ugrave 8#332 /Uacute 8#333 /Ucircumflex
8#334 /Udieresis 8#335 /Yacute 8#336 /Thorn 8#337 /germandbls 8#340 /agrave
8#341 /aacute 8#342 /acircumflex 8#343 /atilde 8#344 /adieresis 8#345 /aring
8#346 /ae 8#347 /ccedilla 8#350 /egrave 8#351 /eacute
8#352 /ecircumflex 8#353 /edieresis 8#354 /igrave 8#355 /iacute
8#356 /icircumflex 8#357 /idieresis 8#360 /eth 8#361 /ntilde 8#362 /ograve
8#363 /oacute 8#364 /ocircumflex 8#365 /otilde 8#366 /odieresis 8#367 /divide
8#370 /oslash 8#371 /ugrave 8#372 /uacute 8#373 /ucircumflex
8#374 /udieresis 8#375 /yacute 8#376 /thorn 8#377 /ydieresis] def
/Helvetica-BoldOblique /Helvetica-BoldOblique-iso isovec ReEncode
/$F2psBegin {$F2psDict begin /$F2psEnteredState save def} def
/$F2psEnd {$F2psEnteredState restore end} def

/pageheader {
sa
n 0 386 m 0 0 l 702 0 l 702 386 l cp clip
5.2 397.4 tr
1 -1 sc
$F2psBegin
10 setmiterlimit
0 slj 0 slc
 0.06000 0.06000 sc
} bind def
/pagefooter {
$F2psEnd
restore
} bind def
%%EndProlog
pageheader
%
% Fig objects follow
%
% 
% here starts figure with depth 0
% Polyline
0 slj
0 slc
15.000 slw
gs  clippath
6536 5765 m 6536 5786 l 6253 5835 l 6253 5715 l cp
4415 5786 m 4415 5765 l 4697 5715 l 4697 5835 l cp
eoclip
n 4425 5775 m
 6525 5775 l gs col0 s gr gr
% arrowhead
n 4697 5715 m 4457 5775 l 4697 5835 l 4697 5715 l  cp gs 0.00 setgray ef gr  col0 s
% arrowhead
n 6253 5835 m 6493 5775 l 6253 5715 l 6253 5835 l  cp gs 0.00 setgray ef gr  col0 s
% Polyline
165.000 slw
gs  clippath
6611 6290 m 6611 6461 l 5948 6495 l 5948 6255 l cp
4340 6461 m 4340 6290 l 5002 6255 l 5002 6495 l cp
eoclip
n 4425 6375 m
 6525 6375 l gs col28 s gr gr
% arrowhead
45.000 slw
n 5002 6255 m 4522 6375 l 5002 6495 l 5002 6255 l  cp gs col28 1.00 shd ef gr  col28 s
% arrowhead
n 5948 6495 m 6428 6375 l 5948 6255 l 5948 6495 l  cp gs col28 1.00 shd ef gr  col28 s
% Polyline
2 slj
15.000 slw
n 2075 3225 m 2117 3225 l 2158 3225 l 2196 3225 l 2232 3225 l 2266 3226 l
 2298 3226 l 2329 3227 l 2358 3228 l 2385 3229 l 2410 3230 l
 2433 3232 l 2455 3234 l 2474 3236 l 2491 3239 l 2507 3242 l
 2521 3246 l 2533 3250 l 2544 3254 l 2553 3258 l 2561 3264 l
 2568 3269 l 2575 3275 l 2582 3283 l 2589 3292 l 2595 3302 l
 2600 3314 l 2605 3327 l 2609 3342 l 2612 3358 l 2616 3376 l
 2618 3396 l 2620 3417 l 2622 3439 l 2623 3463 l 2624 3487 l
 2624 3513 l 2625 3539 l 2625 3567 l 2625 3595 l 2625 3625 l
 2625 3647 l 2625 3669 l 2625 3692 l 2625 3717 l 2625 3742 l
 2625 3769 l 2625 3796 l 2625 3824 l 2625 3854 l 2625 3883 l
 2625 3914 l 2625 3944 l 2625 3975 l 2625 4006 l 2625 4036 l
 2625 4067 l 2625 4096 l 2625 4126 l 2625 4154 l 2625 4181 l
 2625 4208 l 2625 4233 l 2625 4258 l 2625 4281 l 2625 4303 l
 2625 4325 l 2625 4355 l 2625 4383 l 2625 4411 l 2624 4437 l
 2624 4463 l 2623 4487 l 2622 4511 l 2620 4533 l 2618 4554 l
 2616 4574 l 2612 4592 l 2609 4608 l 2605 4623 l 2600 4636 l
 2595 4648 l 2589 4658 l 2582 4667 l 2575 4675 l 2568 4681 l
 2561 4686 l 2553 4692 l 2544 4696 l 2533 4700 l 2521 4704 l
 2507 4708 l 2491 4711 l 2474 4714 l 2455 4716 l 2433 4718 l
 2410 4720 l 2385 4721 l 2358 4722 l 2329 4723 l 2298 4724 l
 2266 4724 l 2232 4725 l 2196 4725 l 2158 4725 l 2117 4725 l
 2075 4725 l 2048 4725 l 2019 4725 l 1990 4725 l 1959 4725 l
 1927 4725 l 1894 4725 l 1860 4725 l 1825 4725 l 1789 4725 l
 1751 4725 l 1713 4725 l 1673 4725 l 1633 4725 l 1592 4725 l
 1551 4725 l 1509 4725 l 1467 4725 l 1425 4725 l 1383 4725 l
 1341 4725 l 1299 4725 l 1258 4725 l 1217 4725 l 1177 4725 l
 1137 4725 l 1099 4725 l 1061 4725 l 1025 4725 l 990 4725 l
 956 4725 l 923 4725 l 891 4725 l 860 4725 l 831 4725 l
 802 4725 l 775 4725 l 733 4725 l 692 4725 l 654 4725 l
 618 4725 l 584 4724 l 552 4724 l 521 4723 l 492 4722 l
 465 4721 l 440 4720 l 417 4718 l 395 4716 l 376 4714 l
 359 4711 l 343 4708 l 329 4704 l 317 4700 l 306 4696 l
 297 4692 l 289 4686 l 282 4681 l 275 4675 l 268 4667 l
 261 4658 l 255 4648 l 250 4636 l 245 4623 l 241 4608 l
 238 4592 l 234 4574 l 232 4554 l 230 4533 l 228 4511 l
 227 4487 l 226 4463 l 226 4437 l 225 4411 l 225 4383 l
 225 4355 l 225 4325 l 225 4303 l 225 4281 l 225 4258 l
 225 4233 l 225 4208 l 225 4181 l 225 4154 l 225 4126 l
 225 4096 l 225 4067 l 225 4036 l 225 4006 l 225 3975 l
 225 3944 l 225 3914 l 225 3883 l 225 3854 l 225 3824 l
 225 3796 l 225 3769 l 225 3742 l 225 3717 l 225 3692 l
 225 3669 l 225 3647 l 225 3625 l 225 3595 l 225 3567 l
 225 3539 l 226 3513 l 226 3487 l 227 3463 l 228 3439 l
 230 3417 l 232 3396 l 234 3376 l 238 3358 l 241 3342 l
 245 3327 l 250 3314 l 255 3302 l 261 3292 l 268 3283 l
 275 3275 l 282 3269 l 289 3264 l 297 3258 l 306 3254 l
 317 3250 l 329 3246 l 343 3242 l 359 3239 l 376 3236 l
 395 3234 l 417 3232 l 440 3230 l 465 3229 l 492 3228 l
 521 3227 l 552 3226 l 584 3226 l 618 3225 l 654 3225 l
 692 3225 l 733 3225 l 775 3225 l 802 3225 l 831 3225 l
 860 3225 l 891 3225 l 923 3225 l 956 3225 l 990 3225 l
 1025 3225 l 1061 3225 l 1099 3225 l 1137 3225 l 1177 3225 l
 1217 3225 l 1258 3225 l 1299 3225 l 1341 3225 l 1383 3225 l
 1425 3225 l 1467 3225 l 1509 3225 l 1551 3225 l 1592 3225 l
 1633 3225 l 1673 3225 l 1713 3225 l 1751 3225 l 1789 3225 l
 1825 3225 l 1860 3225 l 1894 3225 l 1927 3225 l 1959 3225 l
 1990 3225 l 2019 3225 l 2048 3225 l
 cp gs col0 s gr % Polyline
n 6275 225 m 6317 225 l 6358 225 l 6396 225 l 6432 225 l 6466 226 l
 6498 226 l 6529 227 l 6558 228 l 6585 229 l 6610 230 l
 6633 232 l 6655 234 l 6674 236 l 6691 239 l 6707 242 l
 6721 246 l 6733 250 l 6744 254 l 6753 258 l 6761 264 l
 6768 269 l 6775 275 l 6782 283 l 6789 292 l 6795 302 l
 6800 314 l 6805 327 l 6809 342 l 6812 358 l 6816 376 l
 6818 396 l 6820 417 l 6822 439 l 6823 463 l 6824 487 l
 6824 513 l 6825 539 l 6825 567 l 6825 595 l 6825 625 l
 6825 647 l 6825 669 l 6825 692 l 6825 717 l 6825 742 l
 6825 769 l 6825 796 l 6825 824 l 6825 854 l 6825 883 l
 6825 914 l 6825 944 l 6825 975 l 6825 1006 l 6825 1036 l
 6825 1067 l 6825 1096 l 6825 1126 l 6825 1154 l 6825 1181 l
 6825 1208 l 6825 1233 l 6825 1258 l 6825 1281 l 6825 1303 l
 6825 1325 l 6825 1355 l 6825 1383 l 6825 1411 l 6824 1437 l
 6824 1463 l 6823 1487 l 6822 1511 l 6820 1533 l 6818 1554 l
 6816 1574 l 6812 1592 l 6809 1608 l 6805 1623 l 6800 1636 l
 6795 1648 l 6789 1658 l 6782 1667 l 6775 1675 l 6768 1681 l
 6761 1686 l 6753 1692 l 6744 1696 l 6733 1700 l 6721 1704 l
 6707 1708 l 6691 1711 l 6674 1714 l 6655 1716 l 6633 1718 l
 6610 1720 l 6585 1721 l 6558 1722 l 6529 1723 l 6498 1724 l
 6466 1724 l 6432 1725 l 6396 1725 l 6358 1725 l 6317 1725 l
 6275 1725 l 6248 1725 l 6219 1725 l 6190 1725 l 6159 1725 l
 6127 1725 l 6094 1725 l 6060 1725 l 6025 1725 l 5989 1725 l
 5951 1725 l 5913 1725 l 5873 1725 l 5833 1725 l 5792 1725 l
 5751 1725 l 5709 1725 l 5667 1725 l 5625 1725 l 5583 1725 l
 5541 1725 l 5499 1725 l 5458 1725 l 5417 1725 l 5377 1725 l
 5337 1725 l 5299 1725 l 5261 1725 l 5225 1725 l 5190 1725 l
 5156 1725 l 5123 1725 l 5091 1725 l 5060 1725 l 5031 1725 l
 5002 1725 l 4975 1725 l 4933 1725 l 4892 1725 l 4854 1725 l
 4818 1725 l 4784 1724 l 4752 1724 l 4721 1723 l 4692 1722 l
 4665 1721 l 4640 1720 l 4617 1718 l 4595 1716 l 4576 1714 l
 4559 1711 l 4543 1708 l 4529 1704 l 4517 1700 l 4506 1696 l
 4497 1692 l 4489 1686 l 4482 1681 l 4475 1675 l 4468 1667 l
 4461 1658 l 4455 1648 l 4450 1636 l 4445 1623 l 4441 1608 l
 4438 1592 l 4434 1574 l 4432 1554 l 4430 1533 l 4428 1511 l
 4427 1487 l 4426 1463 l 4426 1437 l 4425 1411 l 4425 1383 l
 4425 1355 l 4425 1325 l 4425 1303 l 4425 1281 l 4425 1258 l
 4425 1233 l 4425 1208 l 4425 1181 l 4425 1154 l 4425 1126 l
 4425 1096 l 4425 1067 l 4425 1036 l 4425 1006 l 4425 975 l
 4425 944 l 4425 914 l 4425 883 l 4425 854 l 4425 824 l
 4425 796 l 4425 769 l 4425 742 l 4425 717 l 4425 692 l
 4425 669 l 4425 647 l 4425 625 l 4425 595 l 4425 567 l
 4425 539 l 4426 513 l 4426 487 l 4427 463 l 4428 439 l
 4430 417 l 4432 396 l 4434 376 l 4438 358 l 4441 342 l
 4445 327 l 4450 314 l 4455 302 l 4461 292 l 4468 283 l
 4475 275 l 4482 269 l 4489 264 l 4497 258 l 4506 254 l
 4517 250 l 4529 246 l 4543 242 l 4559 239 l 4576 236 l
 4595 234 l 4617 232 l 4640 230 l 4665 229 l 4692 228 l
 4721 227 l 4752 226 l 4784 226 l 4818 225 l 4854 225 l
 4892 225 l 4933 225 l 4975 225 l 5002 225 l 5031 225 l
 5060 225 l 5091 225 l 5123 225 l 5156 225 l 5190 225 l
 5225 225 l 5261 225 l 5299 225 l 5337 225 l 5377 225 l
 5417 225 l 5458 225 l 5499 225 l 5541 225 l 5583 225 l
 5625 225 l 5667 225 l 5709 225 l 5751 225 l 5792 225 l
 5833 225 l 5873 225 l 5913 225 l 5951 225 l 5989 225 l
 6025 225 l 6060 225 l 6094 225 l 6127 225 l 6159 225 l
 6190 225 l 6219 225 l 6248 225 l
 cp gs col0 s gr % Polyline
n 10550 3225 m 10592 3225 l 10633 3225 l 10671 3225 l 10707 3225 l 10741 3226 l
 10773 3226 l 10804 3227 l 10833 3228 l 10860 3229 l 10885 3230 l
 10908 3232 l 10930 3234 l 10949 3236 l 10966 3239 l 10982 3242 l
 10996 3246 l 11008 3250 l 11019 3254 l 11028 3258 l 11036 3264 l
 11043 3269 l 11050 3275 l 11057 3283 l 11064 3292 l 11070 3302 l
 11075 3314 l 11080 3327 l 11084 3342 l 11087 3358 l 11091 3376 l
 11093 3396 l 11095 3417 l 11097 3439 l 11098 3463 l 11099 3487 l
 11099 3513 l 11100 3539 l 11100 3567 l 11100 3595 l 11100 3625 l
 11100 3647 l 11100 3669 l 11100 3692 l 11100 3717 l 11100 3742 l
 11100 3769 l 11100 3796 l 11100 3824 l 11100 3854 l 11100 3883 l
 11100 3914 l 11100 3944 l 11100 3975 l 11100 4006 l 11100 4036 l
 11100 4067 l 11100 4096 l 11100 4126 l 11100 4154 l 11100 4181 l
 11100 4208 l 11100 4233 l 11100 4258 l 11100 4281 l 11100 4303 l
 11100 4325 l 11100 4355 l 11100 4383 l 11100 4411 l 11099 4437 l
 11099 4463 l 11098 4487 l 11097 4511 l 11095 4533 l 11093 4554 l
 11091 4574 l 11087 4592 l 11084 4608 l 11080 4623 l 11075 4636 l
 11070 4648 l 11064 4658 l 11057 4667 l 11050 4675 l 11043 4681 l
 11036 4686 l 11028 4692 l 11019 4696 l 11008 4700 l 10996 4704 l
 10982 4708 l 10966 4711 l 10949 4714 l 10930 4716 l 10908 4718 l
 10885 4720 l 10860 4721 l 10833 4722 l 10804 4723 l 10773 4724 l
 10741 4724 l 10707 4725 l 10671 4725 l 10633 4725 l 10592 4725 l
 10550 4725 l 10523 4725 l 10494 4725 l 10465 4725 l 10434 4725 l
 10402 4725 l 10369 4725 l 10335 4725 l 10300 4725 l 10264 4725 l
 10226 4725 l 10188 4725 l 10148 4725 l 10108 4725 l 10067 4725 l
 10026 4725 l 9984 4725 l 9942 4725 l 9900 4725 l 9858 4725 l
 9816 4725 l 9774 4725 l 9733 4725 l 9692 4725 l 9652 4725 l
 9612 4725 l 9574 4725 l 9536 4725 l 9500 4725 l 9465 4725 l
 9431 4725 l 9398 4725 l 9366 4725 l 9335 4725 l 9306 4725 l
 9277 4725 l 9250 4725 l 9208 4725 l 9167 4725 l 9129 4725 l
 9093 4725 l 9059 4724 l 9027 4724 l 8996 4723 l 8967 4722 l
 8940 4721 l 8915 4720 l 8892 4718 l 8870 4716 l 8851 4714 l
 8834 4711 l 8818 4708 l 8804 4704 l 8792 4700 l 8781 4696 l
 8772 4692 l 8764 4686 l 8757 4681 l 8750 4675 l 8743 4667 l
 8736 4658 l 8730 4648 l 8725 4636 l 8720 4623 l 8716 4608 l
 8713 4592 l 8709 4574 l 8707 4554 l 8705 4533 l 8703 4511 l
 8702 4487 l 8701 4463 l 8701 4437 l 8700 4411 l 8700 4383 l
 8700 4355 l 8700 4325 l 8700 4303 l 8700 4281 l 8700 4258 l
 8700 4233 l 8700 4208 l 8700 4181 l 8700 4154 l 8700 4126 l
 8700 4096 l 8700 4067 l 8700 4036 l 8700 4006 l 8700 3975 l
 8700 3944 l 8700 3914 l 8700 3883 l 8700 3854 l 8700 3824 l
 8700 3796 l 8700 3769 l 8700 3742 l 8700 3717 l 8700 3692 l
 8700 3669 l 8700 3647 l 8700 3625 l 8700 3595 l 8700 3567 l
 8700 3539 l 8701 3513 l 8701 3487 l 8702 3463 l 8703 3439 l
 8705 3417 l 8707 3396 l 8709 3376 l 8713 3358 l 8716 3342 l
 8720 3327 l 8725 3314 l 8730 3302 l 8736 3292 l 8743 3283 l
 8750 3275 l 8757 3269 l 8764 3264 l 8772 3258 l 8781 3254 l
 8792 3250 l 8804 3246 l 8818 3242 l 8834 3239 l 8851 3236 l
 8870 3234 l 8892 3232 l 8915 3230 l 8940 3229 l 8967 3228 l
 8996 3227 l 9027 3226 l 9059 3226 l 9093 3225 l 9129 3225 l
 9167 3225 l 9208 3225 l 9250 3225 l 9277 3225 l 9306 3225 l
 9335 3225 l 9366 3225 l 9398 3225 l 9431 3225 l 9465 3225 l
 9500 3225 l 9536 3225 l 9574 3225 l 9612 3225 l 9652 3225 l
 9692 3225 l 9733 3225 l 9774 3225 l 9816 3225 l 9858 3225 l
 9900 3225 l 9942 3225 l 9984 3225 l 10026 3225 l 10067 3225 l
 10108 3225 l 10148 3225 l 10188 3225 l 10226 3225 l 10264 3225 l
 10300 3225 l 10335 3225 l 10369 3225 l 10402 3225 l 10434 3225 l
 10465 3225 l 10494 3225 l 10523 3225 l
 cp gs col0 s gr % Polyline
0 slj
gs  clippath
2324 3240 m 2310 3224 l 2493 3002 l 2571 3093 l cp
4426 1410 m 4440 1426 l 4257 1648 l 4179 1557 l cp
eoclip
n 4425 1425 m
 2325 3225 l gs col0 s gr gr
% arrowhead
n 4257 1648 m 4400 1446 l 4179 1557 l 4257 1648 l  cp gs 0.00 setgray ef gr  col0 s
% arrowhead
n 2493 3002 m 2350 3204 l 2571 3093 l 2493 3002 l  cp gs 0.00 setgray ef gr  col0 s
% Polyline
gs  clippath
6810 1426 m 6824 1410 l 7071 1557 l 6993 1648 l cp
8940 3224 m 8926 3240 l 8679 3093 l 8757 3002 l cp
eoclip
n 8925 3225 m
 6825 1425 l gs col0 s gr gr
% arrowhead
n 8679 3093 m 8900 3204 l 8757 3002 l 8679 3093 l  cp gs 0.00 setgray ef gr  col0 s
% arrowhead
n 7071 1557 m 6850 1446 l 6993 1648 l 7071 1557 l  cp gs 0.00 setgray ef gr  col0 s
% Polyline
165.000 slw
gs  clippath
4435 705 m 4545 835 l 4061 1289 l 3906 1105 l cp
1565 3345 m 1455 3215 l 1939 2761 l 2094 2945 l cp
eoclip
n 1575 3225 m
 4425 825 l gs col28 s gr gr
% arrowhead
45.000 slw
n 1939 2761 m 1649 3162 l 2094 2945 l 1939 2761 l  cp gs col28 1.00 shd ef gr  col28 s
% arrowhead
n 4061 1289 m 4351 888 l 3906 1105 l 4061 1289 l  cp gs col28 1.00 shd ef gr  col28 s
% Polyline
165.000 slw
gs  clippath
8711 3890 m 8711 4061 l 8048 4095 l 8048 3855 l cp
2540 4061 m 2540 3890 l 3202 3855 l 3202 4095 l cp
eoclip
n 2625 3975 m
 8625 3975 l gs col28 s gr gr
% arrowhead
45.000 slw
n 3202 3855 m 2722 3975 l 3202 4095 l 3202 3855 l  cp gs col28 1.00 shd ef gr  col28 s
% arrowhead
n 8048 4095 m 8528 3975 l 8048 3855 l 8048 4095 l  cp gs col28 1.00 shd ef gr  col28 s
/Helvetica-BoldOblique-iso ff 400.00 scf sf
6825 5850 m
gs 1 -1 sc (tats\344chliche Verbindung) col0 sh gr
/Helvetica-BoldOblique-iso ff 400.00 scf sf
6825 6450 m
gs 1 -1 sc (scheinbare Verbindung) col0 sh gr
/Helvetica-BoldOblique-iso ff 400.00 scf sf
2775 1575 m
gs 1 -1 sc (Illusion des) dup sw pop neg 0 rm  col28 sh gr
/Helvetica-BoldOblique-iso ff 400.00 scf sf
2775 2025 m
gs 1 -1 sc (realen Servers) dup sw pop neg 0 rm  col28 sh gr
/Helvetica-BoldOblique-iso ff 400.00 scf sf
1425 4125 m
gs 1 -1 sc (Server) dup sw pop 2 div neg 0 rm  col0 sh gr
/Helvetica-BoldOblique-iso ff 400.00 scf sf
5625 1125 m
gs 1 -1 sc (Proxy) dup sw pop 2 div neg 0 rm  col0 sh gr
/Helvetica-BoldOblique-iso ff 400.00 scf sf
9825 4125 m
gs 1 -1 sc (Client) dup sw pop 2 div neg 0 rm  col0 sh gr
/Helvetica-BoldOblique-iso ff 400.00 scf sf
5550 4575 m
gs 1 -1 sc (Illusion des Benutzers) dup sw pop 2 div neg 0 rm  col28 sh gr
% here ends figure;
pagefooter
showpage
%%Trailer
%EOF
